.. contents::
   :depth: 3.0
..

Install PythonInR on Windows
============================

(under construction (last change 17.05.2015))


Dynamic Linked
--------------

.. code:: r

    install.packages("PythonInR")
